\relax 
\providecommand\hyper@newdestlabel[2]{}
\AC@reset@newl@bel
\catcode `"\active 
\providecommand\HyperFirstAtBeginDocument{\AtBeginDocument}
\HyperFirstAtBeginDocument{\ifx\hyper@anchor\@undefined
\global\let\oldcontentsline\contentsline
\gdef\contentsline#1#2#3#4{\oldcontentsline{#1}{#2}{#3}}
\global\let\oldnewlabel\newlabel
\gdef\newlabel#1#2{\newlabelxx{#1}#2}
\gdef\newlabelxx#1#2#3#4#5#6{\oldnewlabel{#1}{{#2}{#3}}}
\AtEndDocument{\ifx\hyper@anchor\@undefined
\let\contentsline\oldcontentsline
\let\newlabel\oldnewlabel
\fi}
\fi}
\global\let\hyper@last\relax 
\gdef\HyperFirstAtBeginDocument#1{#1}
\providecommand\HyField@AuxAddToFields[1]{}
\providecommand\HyField@AuxAddToCoFields[2]{}
\providecommand\@newglossary[4]{}
\@newglossary{main}{glg}{gls}{glo}
\@newglossary{acronym}{alg}{acr}{acn}
\babel@aux{ngerman}{}
\@writefile{toc}{\contentsline {section}{\numberline {1}Einleitung}{1}{section.1}}
\@writefile{toc}{\contentsline {subsection}{\numberline {1.1}Installation}{1}{subsection.1.1}}
\@writefile{lof}{\contentsline {figure}{\numberline {1.1}{\ignorespaces Installation von GitLab: Start\relax }}{2}{figure.caption.2}}
\providecommand*\caption@xref[2]{\@setref\relax\@undefined{#1}}
\newlabel{inst1}{{1.1}{2}{Installation von GitLab: Start\relax }{figure.caption.2}{}}
\@writefile{lof}{\contentsline {figure}{\numberline {1.2}{\ignorespaces Installation von GitLab: Lizenzbedingungen zustimmen\relax }}{2}{figure.caption.3}}
\newlabel{inst2}{{1.2}{2}{Installation von GitLab: Lizenzbedingungen zustimmen\relax }{figure.caption.3}{}}
\@writefile{lof}{\contentsline {figure}{\numberline {1.3}{\ignorespaces Installation von GitLab: Installationsort ausw\IeC {\"a}hlen\relax }}{3}{figure.caption.4}}
\newlabel{inst3}{{1.3}{3}{Installation von GitLab: Installationsort auswählen\relax }{figure.caption.4}{}}
\@writefile{lof}{\contentsline {figure}{\numberline {1.4}{\ignorespaces Installation von GitLab: Installation best\IeC {\"a}tigen\relax }}{3}{figure.caption.5}}
\newlabel{inst4}{{1.4}{3}{Installation von GitLab: Installation bestätigen\relax }{figure.caption.5}{}}
\@writefile{lof}{\contentsline {figure}{\numberline {1.5}{\ignorespaces Installation von GitLab: Installation fertigstellen und GitAhead starten\relax }}{4}{figure.caption.6}}
\newlabel{inst5}{{1.5}{4}{Installation von GitLab: Installation fertigstellen und GitAhead starten\relax }{figure.caption.6}{}}
\@writefile{toc}{\contentsline {section}{\numberline {2}Inbetriebnahme}{4}{section.2}}
\@writefile{toc}{\contentsline {subsection}{\numberline {2.1}Festlegen der Einstellungen}{4}{subsection.2.1}}
\@writefile{lof}{\contentsline {figure}{\numberline {2.1}{\ignorespaces Startbildschirm von GitAhead\relax }}{4}{figure.caption.7}}
\newlabel{firststart}{{2.1}{4}{Startbildschirm von GitAhead\relax }{figure.caption.7}{}}
\@writefile{lof}{\contentsline {figure}{\numberline {2.2}{\ignorespaces Einstellung des Benutzernamens und der E-Mail-Adresse\relax }}{5}{figure.caption.8}}
\newlabel{generalsettings}{{2.2}{5}{Einstellung des Benutzernamens und der E-Mail-Adresse\relax }{figure.caption.8}{}}
\@writefile{toc}{\contentsline {subsection}{\numberline {2.2}Klonen des Repository}{5}{subsection.2.2}}
\@writefile{lof}{\contentsline {figure}{\numberline {2.3}{\ignorespaces Klonen des GitLab-Repository\relax }}{6}{figure.caption.9}}
\newlabel{clone1}{{2.3}{6}{Klonen des GitLab-Repository\relax }{figure.caption.9}{}}
\@writefile{lof}{\contentsline {figure}{\numberline {2.4}{\ignorespaces Eingeben der Adresse des GitLab-Repository\relax }}{7}{figure.caption.10}}
\newlabel{clone2}{{2.4}{7}{Eingeben der Adresse des GitLab-Repository\relax }{figure.caption.10}{}}
\@writefile{toc}{\contentsline {subsection}{\numberline {2.3}Commit und Push}{7}{subsection.2.3}}
\@writefile{lof}{\contentsline {figure}{\numberline {2.5}{\ignorespaces \IeC {\"U}bersicht \IeC {\"u}ber den Repositoryinhalt\relax }}{8}{figure.caption.11}}
\newlabel{compush1}{{2.5}{8}{Übersicht über den Repositoryinhalt\relax }{figure.caption.11}{}}
\@writefile{lof}{\contentsline {figure}{\numberline {2.6}{\ignorespaces Inhalt der index.html\relax }}{9}{figure.caption.12}}
\newlabel{compush2}{{2.6}{9}{Inhalt der index.html\relax }{figure.caption.12}{}}
\@writefile{lof}{\contentsline {figure}{\numberline {2.7}{\ignorespaces Neuer Inhalt der index.html\relax }}{10}{figure.caption.13}}
\newlabel{compush3}{{2.7}{10}{Neuer Inhalt der index.html\relax }{figure.caption.13}{}}
\@writefile{lof}{\contentsline {figure}{\numberline {2.8}{\ignorespaces Auflistung der \IeC {\"A}nderung an der Datei index.html\relax }}{11}{figure.caption.14}}
\newlabel{compush4}{{2.8}{11}{Auflistung der Änderung an der Datei index.html\relax }{figure.caption.14}{}}
\@writefile{lof}{\contentsline {figure}{\numberline {2.9}{\ignorespaces Stagen und Committen der \IeC {\"A}nderung an der Datei index.html\relax }}{12}{figure.caption.15}}
\newlabel{compush5}{{2.9}{12}{Stagen und Committen der Änderung an der Datei index.html\relax }{figure.caption.15}{}}
\@writefile{lof}{\contentsline {figure}{\numberline {2.10}{\ignorespaces Committen und Pushen der \IeC {\"A}nderung an der Datei index.html\relax }}{13}{figure.caption.16}}
\newlabel{compush6}{{2.10}{13}{Committen und Pushen der Änderung an der Datei index.html\relax }{figure.caption.16}{}}
\@writefile{toc}{\contentsline {subsection}{\numberline {2.4}Pull}{13}{subsection.2.4}}
\@writefile{lof}{\contentsline {figure}{\numberline {2.11}{\ignorespaces \glqq Pullen \grqq des neuesten Stands vom Server\relax }}{14}{figure.caption.17}}
\newlabel{pull1}{{2.11}{14}{\glqq Pullen \grqq des neuesten Stands vom Server\relax }{figure.caption.17}{}}
\@writefile{toc}{\contentsline {subsection}{\numberline {2.5}Anlegen eines neuen Branch}{14}{subsection.2.5}}
\@writefile{lof}{\contentsline {figure}{\numberline {2.12}{\ignorespaces Anlegen eines neuen Branch (Zweig)\relax }}{15}{figure.caption.18}}
\newlabel{newbr1}{{2.12}{15}{Anlegen eines neuen Branch (Zweig)\relax }{figure.caption.18}{}}
\@writefile{lof}{\contentsline {figure}{\numberline {2.13}{\ignorespaces Anlegen eines neuen Branch (Zweig)\relax }}{16}{figure.caption.19}}
\newlabel{newbr2}{{2.13}{16}{Anlegen eines neuen Branch (Zweig)\relax }{figure.caption.19}{}}
\@writefile{lof}{\contentsline {figure}{\numberline {2.14}{\ignorespaces Angelegter Branch CoordinatesbyClick\relax }}{17}{figure.caption.20}}
\newlabel{newbr3}{{2.14}{17}{Angelegter Branch CoordinatesbyClick\relax }{figure.caption.20}{}}
\@writefile{lof}{\contentsline {figure}{\numberline {2.15}{\ignorespaces Checkout in CoordinatesbyClick\relax }}{18}{figure.caption.21}}
\newlabel{newbr4}{{2.15}{18}{Checkout in CoordinatesbyClick\relax }{figure.caption.21}{}}
\@writefile{lof}{\contentsline {figure}{\numberline {2.16}{\ignorespaces Checkout in CoordinatesbyClick\relax }}{19}{figure.caption.22}}
\newlabel{newbr5}{{2.16}{19}{Checkout in CoordinatesbyClick\relax }{figure.caption.22}{}}
\@writefile{lof}{\contentsline {figure}{\numberline {2.17}{\ignorespaces Erstellen der Datei CoordByClick.js\relax }}{20}{figure.caption.23}}
\newlabel{newbr6}{{2.17}{20}{Erstellen der Datei CoordByClick.js\relax }{figure.caption.23}{}}
\@writefile{lof}{\contentsline {figure}{\numberline {2.18}{\ignorespaces Commit der neu erstellten Datei\relax }}{21}{figure.caption.24}}
\newlabel{newbr7}{{2.18}{21}{Commit der neu erstellten Datei\relax }{figure.caption.24}{}}
\@writefile{toc}{\contentsline {subsection}{\numberline {2.6}Reset zu einem \IeC {\"a}lteren Commit}{21}{subsection.2.6}}
\@writefile{lof}{\contentsline {figure}{\numberline {2.19}{\ignorespaces Resetten zu einem \IeC {\"a}lteren Commit\relax }}{22}{figure.caption.25}}
\newlabel{res1}{{2.19}{22}{Resetten zu einem älteren Commit\relax }{figure.caption.25}{}}
